[gd_scene load_steps=3 format=3 uid="uid://coso00y76fk2y"]

[ext_resource type="Theme" uid="uid://cnoehhn2t1qcq" path="res://Themes/title_gui_theme.tres" id="1_18yod"]
[ext_resource type="Script" path="res://Scenes/pause_screen.gd" id="2_a5g27"]

[node name="PauseScreen" type="Control"]
process_mode = 3
layout_mode = 3
anchors_preset = 15
anchor_right = 1.0
anchor_bottom = 1.0
grow_horizontal = 2
grow_vertical = 2
theme = ExtResource("1_18yod")
script = ExtResource("2_a5g27")
title_scene = "res://Scenes/title_screen.tscn"

[node name="PanelContainer" type="PanelContainer" parent="."]
layout_mode = 1
anchors_preset = -1
anchor_left = 0.394097
anchor_top = 0.367284
anchor_right = 0.605903
anchor_bottom = 0.632716
grow_horizontal = 2
grow_vertical = 2
metadata/_edit_use_anchors_ = true

[node name="VBoxContainer" type="VBoxContainer" parent="PanelContainer"]
layout_mode = 2

[node name="Title" type="Label" parent="PanelContainer/VBoxContainer"]
layout_mode = 2
size_flags_horizontal = 4
size_flags_vertical = 0
theme_override_font_sizes/font_size = 28
text = "PAUSA"

[node name="ContinueButton" type="Button" parent="PanelContainer/VBoxContainer"]
layout_mode = 2
text = "Continuar"

[node name="ExitButton" type="Button" parent="PanelContainer/VBoxContainer"]
layout_mode = 2
text = "Salir"

[connection signal="pressed" from="PanelContainer/VBoxContainer/ContinueButton" to="." method="_on_continue_button_pressed"]
[connection signal="pressed" from="PanelContainer/VBoxContainer/ExitButton" to="." method="_on_exit_button_pressed"]
