[gd_scene load_steps=6 format=3 uid="uid://dqcosvj502r82"]

[ext_resource type="Script" path="res://Scenes/ShieldAnimation.gd" id="1_pr8da"]

[sub_resource type="BoxShape3D" id="BoxShape3D_gbyy7"]
size = Vector3(1, 3, 0.2)

[sub_resource type="BoxMesh" id="BoxMesh_xu5c3"]
size = Vector3(1, 2, 0.2)

[sub_resource type="StandardMaterial3D" id="StandardMaterial3D_fma80"]
albedo_color = Color(0.960784, 0.662745, 0.721569, 1)

[sub_resource type="AnimationLibrary" id="AnimationLibrary_ksbop"]

[node name="Shield" type="StaticBody3D"]

[node name="CollisionShape3D" type="CollisionShape3D" parent="."]
transform = Transform3D(1, 0, 0, 0, 1, 0, 0, 0, 1, 0, 1.5, 0)
shape = SubResource("BoxShape3D_gbyy7")

[node name="MeshInstance3D" type="MeshInstance3D" parent="."]
transform = Transform3D(1, 0, 0, 0, 1, 0, 0, 0, 1, 0, 1.5, 0)
mesh = SubResource("BoxMesh_xu5c3")
surface_material_override/0 = SubResource("StandardMaterial3D_fma80")

[node name="AnimationPlayer" type="AnimationPlayer" parent="."]
libraries = {
"": SubResource("AnimationLibrary_ksbop")
}
script = ExtResource("1_pr8da")
